Classification Workshop: Introduction to Machine Learning in R with caret
…
What do we need to do before we jump into to trying to build some algorithms?

Preprocess! In particular, we need to center and scale the data. caret can do this for us.

Part 3 - Preprocessing

#Setting up the preprocessing algorithm
set.seed(42)
pp = preProcess(wine_train[,-1], method = c("center", "scale"), outcome = wine_train$varietal)

wine_train_pp = predict(pp, wine_train)
wine_train_pp

## # A tibble: 168 x 15
##    varietal alcohol malic_acid    ash alkalinity magnesium total_phenol
##       <int>   <dbl>      <dbl>  <dbl>      <dbl>     <dbl>        <dbl>
##  1        1   1.48    -0.584    0.220     -1.15     1.88          0.823
##  2        1   0.225   -0.522   -0.831     -2.44     0.0140        0.585
##  3        1   0.176   -0.00786  1.09      -0.264    0.0830        0.823
##  4        1   1.65    -0.371    0.474     -0.794    0.912         2.49 
##  5        1   0.274    0.196    1.82       0.444    1.26          0.823
##  6        1   1.45    -0.540    0.293     -1.27     0.843         1.57 
##  7        1   1.68    -0.442    0.293     -1.44    -0.262         0.346
##  8        1   1.28    -0.194    0.873     -0.558    1.46          0.505
##  9        1   2.22    -0.646   -0.722     -1.62    -0.193         0.823
## 10        1   1.03    -0.903   -0.360     -1.03    -0.124         1.11 
## # ... with 158 more rows, and 8 more variables: flavanoids <dbl>,
## #   nonflav_phenols <dbl>, proantho <dbl>, color <dbl>, hue <dbl>,
## #   OD <dbl>, proline <dbl>, id <dbl>
…
