Machine Learning Algorithm for Tucson Housing Prices
…
housing_df

## # A tibble: 30,170 x 11
##       X1 address  price  dens  beds baths   zip  sqft date_sold    lat
##    <int> <chr>    <dbl> <int> <int> <dbl> <int> <int> <date>     <dbl>
##  1     1 878 Ha… 907660   811    NA    NA 85624  1118 2018-01-17  31.5
##  2     2 Casita… 415000   272    NA    NA 85624  1524 2018-01-17  31.5
##  3     3 10 Aco… 430000   229    NA     2 85624  1872 2017-01-31  31.5
##  4     4 33 Kim… 240000    93    NA     3 85624  2560 2016-12-14  31.5
##  5     5 6 Acor… 249000   186     3     1 85624  1337 2016-05-24  31.5
##  6     6 5920 E… 340000   136     4     3 85739  2490 2018-09-19  32.5
##  7     7 39779 … 418989   107     4     5 85739  3896 2018-06-14  32.5
##  8     8 6080 E… 310000   132     5     3 85739  2343 2018-03-05  32.5
##  9     9 12640 … 275000   147     2     2 85619  1870 2016-05-04  32.4
## 10    10 6234 N… 649000   305     2     2 85750  2121 2018-12-20  32.3
## # ... with 30,160 more rows, and 1 more variable: lon <dbl>
…
