Preprocessing Bean Data (on the road to Machine Learning)
…
## Warning: Column `future_month`/`month` joining factor and character vector,
## coercing into character vector

#Looks reasonable
head(bean_master_import$future_monthly_average_price, n = 20)

##  [1] 20.23250 20.23250 20.23250 18.59500 18.59500 18.59500 18.59500
##  [8] 18.03000 18.03000 18.03000 18.03000 17.62667 17.62667 17.62667
## [15] 17.62667 16.71750 16.71750 16.71750 16.71750 16.34250

#This looks reasonable too
select(bean_master_import, future_monthly_average_price, price)

## # A tibble: 7,625 x 2
##    future_monthly_average_price price
##                           <dbl> <dbl>
##  1                         20.2  18.6
##  2                         20.2  18.2
##  3                         20.2  18.1
##  4                         18.6  18.1
##  5                         18.6  18.5
##  6                         18.6  18.2
##  7                         18.6  18.2
##  8                         18.0  18.0
##  9                         18.0  17.4
## 10                         18.0  17.7
## # ... with 7,615 more rows
…
