A broker simulation leveraging the predictive bean model
…
Whoa! So if we had conservatively purchased based on the rules of this simulation and had our predictive model in hand since the 80s, we could have turned our $10k into 150,000,000. Not too bad. We can also look and see how many times our model steered us wrong and we lost money.

df_port_df %>%
  filter(amount_spent > amount_made) %>%
  mutate(amount_lost = amount_spent - amount_made) %>%
  arrange(desc(amount_lost))

## # A tibble: 29 x 6
##    Date       num_100wt amount_spent       bank amount_made amount_lost
##    <chr>          <dbl>        <dbl>      <dbl>       <dbl>       <dbl>
##  1 2010-03-02    100000      4075000 153231547.    3750000      325000 
##  2 2004-09-08    100000      2900000 113561547.    2750000      150000 
##  3 2000-10-24    100000      2350000  64749547.    2225000      125000 
##  4 1991-08-20     94490      1889800   5620416.    1783499.     106301.
##  5 1995-03-14    100000      2600000  34536547.    2500000      100000 
##  6 1995-05-30    100000      2175000  35311547.    2075000      100000 
##  7 1994-03-22    100000      3300000  28511547.    3213000.      87000.
##  8 2001-03-27    100000      2650000  67049547.    2575000       75000 
##  9 1995-08-29    100000      2600000  35661547.    2550000       50000 
## 10 1998-09-29    100000      2525000  60899547.    2475000       50000 
## # ... with 19 more rows
…
